0.0014,-0.088109
0.0027,-0.021502
0.0041,0.0045005
0.0068,0.076508
0.0095,0.11431
0.0122,0.13891
0.015,0.17552
0.0177,0.19952
0.0204,0.21052
0.0231,0.24272
0.0272,0.27253
0.0544,0.45455
0.0816,0.59616
0.1088,0.71557
0.1361,0.80918
0.1633,0.87159
0.1905,0.90199
0.2177,0.89739
0.2449,0.85039
0.2721,0.74897
0.2993,0.59356
0.3265,0.40994
0.3537,0.23432
0.381,0.090909
0.4082,-0.012701
0.4354,-0.081308
0.4626,-0.12271
0.4898,-0.14451
0.517,-0.15212
0.5442,-0.15012
0.6122,-0.12051
0.6803,-0.074907
0.7483,-0.025103
0.8163,0.023702
0.8844,0.068907
0.9524,0.11031
1.0204,0.14731
1.0884,0.18032
1.1565,0.20932
1.2245,0.21672
1.3606,0.23912
1.4966,0.25713
1.6327,0.27093
1.7687,0.28113
1.9048,0.28833
2.0409,0.29293
2.1769,0.31533
2.313,0.32453
2.449,0.33113
2.5851,0.33533
2.7211,0.33773
2.8572,0.33853
2.9933,0.33793
3.1293,0.33633
3.2654,0.33353
3.4014,0.33013
3.5375,0.32613
3.6735,0.32133
3.8096,0.31613
3.9457,0.31053
4.0817,0.30473
4.2178,0.29873
4.3538,0.29253
4.4899,0.28613
4.6259,0.27993
4.762,0.27373
4.8981,0.26753
5.0341,0.26153
5.1702,0.25573
5.3062,0.25013
5.4423,0.24472
5.5783,0.23972
5.7144,0.23492
5.8505,0.23032
5.9865,0.22632
6.1226,0.22252
6.2586,0.21932
6.3947,0.21632
6.5307,0.21392
6.6668,0.21172
6.8028,0.21012
6.9389,0.20912
7.075,0.20832
7.211,0.20792
7.3471,0.20812
7.4831,0.20872
7.6192,0.20972
7.7552,0.21112
7.8913,0.21312
8.0274,0.21532
8.1634,0.21792
8.2995,0.22112
8.4355,0.22452
8.5716,0.22832
8.7076,0.23232
8.8437,0.23692
8.9798,0.24172
9.1158,0.24672
9.2519,0.25213
9.3879,0.25773
9.524,0.26373
9.66,0.26973
9.7961,0.27593
9.9322,0.28253
10.068,0.28913
10.204,0.29593
10.34,0.30293
10.476,0.30993
10.612,0.31713
10.748,0.32433
10.885,0.33133
11.51,0.37314
11.524,0.37314
11.538,0.37334
11.551,0.37374
11.565,0.37414
11.579,0.37454
11.592,0.37494
11.606,0.37554
11.619,0.37614
11.633,0.37654
11.646,0.37714
11.66,0.37774
11.674,0.37834
11.687,0.37914
11.701,0.37974
11.714,0.38034
11.728,0.38094
11.742,0.38174
11.755,0.38234
11.769,0.38294
11.783,0.38374
11.796,0.38434
11.81,0.38494
11.823,0.38574
11.837,0.38634
11.851,0.38694
11.864,0.38814
11.878,0.38894
11.891,0.38954
11.905,0.39174
11.919,0.39054
11.932,0.39094
11.946,0.39134
11.959,0.39174
11.973,0.39254
11.987,0.39314
12,0.39394
12.014,0.39474
12.027,0.39594
12.041,0.39694
12.055,0.39794
12.068,0.39874
12.082,0.39954
12.095,0.40034
12.109,0.40114
12.123,0.40194
12.136,0.40274
12.15,0.40354
12.164,0.40414
12.177,0.40494
12.191,0.40574
12.204,0.40654
12.218,0.40734
12.232,0.40814
12.245,0.40894
12.259,0.40974
12.272,0.41054
12.286,0.41134
12.3,0.41214
12.313,0.41294
12.327,0.41374
12.34,0.41454
12.354,0.41534
12.368,0.41614
12.381,0.41694
12.395,0.41774
12.408,0.41854
12.422,0.41934
12.436,0.42034
12.449,0.42094
12.463,0.42194
12.476,0.42274
12.49,0.42354
12.504,0.42434
12.517,0.42514
12.531,0.42594
12.544,0.42694
12.558,0.42774
12.572,0.42854
12.585,0.42934
12.599,0.43014
12.613,0.43094
12.626,0.43174
12.64,0.43254
12.653,0.43334
12.667,0.43414
12.681,0.43494
12.694,0.43574
12.708,0.43654
12.721,0.43734
12.735,0.43814
12.748,0.43894
12.762,0.43954
12.776,0.44034
12.789,0.44114
12.803,0.44194
12.817,0.44254
12.83,0.44334
12.844,0.44394
12.857,0.44474
12.871,0.44554
12.885,0.44614
12.898,0.44674
12.912,0.44734
12.925,0.44794
12.939,0.44874
12.953,0.44914
12.966,0.44974
12.98,0.45035
12.993,0.45075
13.007,0.45115
13.021,0.45155
13.034,0.45195
13.048,0.45255
13.062,0.45315
13.075,0.45375
13.089,0.45435
13.102,0.45535
13.116,0.45735
13.13,0.46095
13.143,0.46495
13.157,0.46635
13.17,0.46615
13.184,0.46575
13.197,0.46575
13.211,0.46615
13.225,0.46655
13.238,0.46715
13.252,0.46755
13.266,0.46795
13.279,0.46835
13.293,0.46875
13.306,0.46895
13.32,0.46915
13.334,0.46955
13.347,0.47035
13.361,0.47135
13.374,0.47215
13.388,0.47295
13.402,0.47395
13.415,0.47435
13.429,0.47455
13.442,0.47555
13.456,0.47615
13.47,0.47695
13.483,0.47775
13.497,0.47855
13.511,0.47935
13.524,0.47995
13.538,0.48075
13.551,0.48155
13.565,0.48235
13.579,0.48295
13.592,0.48375
13.606,0.48455
13.619,0.48515
13.633,0.48595
13.646,0.48655
13.66,0.48735
13.674,0.48815
13.687,0.48875
13.701,0.48955
13.714,0.49015
13.728,0.49095
13.742,0.49175
13.755,0.49235
13.769,0.49315
13.783,0.49375
13.796,0.49455
13.81,0.49535
13.823,0.49595
13.837,0.49675
13.851,0.49735
13.864,0.49815
13.878,0.49875
13.891,0.49935
13.905,0.49955
13.919,0.50035
13.932,0.50135
13.946,0.50215
13.959,0.50295
13.973,0.50375
13.987,0.50435
14,0.50515
14.014,0.50555
14.027,0.50615
14.041,0.50695
14.055,0.50775
14.068,0.50875
14.082,0.50955
14.095,0.51035
14.109,0.51055
14.123,0.51115
14.136,0.51175
14.15,0.51215
14.164,0.51275
14.177,0.51335
14.191,0.51415
14.204,0.51475
14.218,0.51535
14.232,0.51615
14.245,0.51675
14.259,0.51735
14.272,0.51795
14.286,0.51875
14.3,0.51935
14.313,0.52015
14.327,0.52075
14.34,0.52155
14.354,0.52215
14.368,0.52275
14.381,0.52355
14.395,0.52415
14.408,0.52395
14.422,0.52535
14.436,0.52595
14.449,0.52675
14.463,0.52735
14.476,0.52795
14.49,0.52855
14.504,0.52915
14.517,0.53035
14.531,0.53135
14.544,0.53195
14.558,0.53255
14.572,0.53315
14.585,0.53395
14.599,0.53455
14.613,0.53515
14.626,0.53555
14.64,0.53615
14.653,0.53675
14.667,0.53755
14.681,0.53795
14.694,0.53835
14.708,0.53895
14.721,0.53955
14.735,0.54015
14.749,0.54075
14.762,0.54135
14.776,0.54195
14.789,0.54255
14.803,0.54315
14.817,0.54375
14.83,0.54435
14.844,0.54495
14.857,0.54555
14.871,0.54615
14.885,0.54695
14.898,0.54775
14.912,0.54875
14.925,0.54935
14.939,0.54975
14.953,0.55016
14.966,0.55036
14.98,0.55096
14.993,0.55156
15.007,0.55216
15.021,0.55276
15.034,0.55356
15.048,0.55436
15.062,0.55516
15.075,0.55556
15.089,0.55636
15.102,0.55696
15.116,0.55756
15.13,0.55796
15.143,0.55876
15.157,0.55936
15.17,0.55996
15.184,0.56056
15.198,0.56136
15.211,0.56196
15.225,0.56236
15.238,0.56296
15.252,0.56356
15.266,0.56416
15.279,0.56476
15.293,0.56516
15.306,0.56576
15.32,0.56656
15.334,0.56716
15.347,0.56776
15.361,0.56816
15.374,0.56896
15.388,0.56976
15.402,0.57036
15.415,0.57076
15.429,0.57156
15.443,0.57216
15.456,0.57256
15.47,0.57296
15.483,0.57356
15.497,0.57396
15.524,0.57536
15.538,0.57556
15.551,0.57616
15.565,0.57676
15.579,0.57736
15.592,0.57776
15.606,0.57836
15.619,0.57876
15.633,0.57956
15.647,0.57996
15.66,0.58056
15.674,0.58096
15.687,0.58156
15.701,0.58216
15.715,0.58296
15.728,0.58336
15.742,0.58376
15.755,0.58436
15.769,0.58516
15.783,0.58556
15.796,0.58596
15.81,0.58676
15.823,0.58736
15.837,0.58776
15.851,0.58816
16,0.59576
17,0.63196
18,0.66277
19,0.68757
20,0.70877
21,0.72797
22,0.74077
23,0.75518
24,0.76298
25,0.77298
30,0.79638
40,0.80578
50,0.79418
60,0.77878
70,0.76438
80,0.75598
90,0.75598
100,0.76798
125,0.77198
150,0.77918
175,0.78858
200,0.79798
225,0.74257
250,0.75958
275,0.75998
300,0.76478
